…
Check the population of the largest TAZs in Santa Clara County

``` r
mtc_city_joined %>% 
  filter(county %in% c("Santa Clara")) %>% 
  arrange(-gacres)
```

    ## Simple feature collection with 368 features and 39 fields
    ## geometry type:  MULTIPOLYGON
    ## dimension:      XY
    ## bbox:           xmin: -122.2025 ymin: 36.89416 xmax: -121.2082 ymax: 37.48464
    ## epsg (SRID):    4326
    ## proj4string:    +proj=longlat +datum=WGS84 +no_defs
    ## # A tibble: 368 x 40
    ##    objectid taz1454 district county gacres Shape__Are Shape__Len
    ##       <dbl>   <dbl>    <dbl> <chr>   <dbl>      <dbl>      <dbl>
    ##  1      226     714       14 Santa… 5.92e5    0.154        2.63 
    ##  2      186     704       14 Santa… 1.03e5    0.0268       1.17 
    ##  3      133     512       10 Santa… 5.49e4    0.0143       0.685
    ##  4      349     347        8 Santa… 5.28e4    0.0137       0.813
    ##  5      211     706       14 Santa… 3.77e4    0.00984      0.595
    ##  6      183     697       14 Santa… 3.09e4    0.00803      0.436
    ##  7      206     713       14 Santa… 1.99e4    0.00518      0.472
    ##  8      224     712       14 Santa… 1.60e4    0.00417      0.409
    ##  9      317     404        9 Santa… 1.58e4    0.00410      0.458
    ## 10      137     696       13 Santa… 1.49e4    0.00387      0.473
    ## # … with 358 more rows, and 33 more variables: geometry <MULTIPOLYGON
    ## #   [°]>, totemp05 <int>, totemp15 <int>, totemp30 <int>, sfdu05 <int>,
    ## #   sfdu15 <int>, sfdu30 <int>, mfdu05 <int>, mfdu15 <int>, mfdu30 <int>,
    ## #   totpop05 <int>, totpop15 <int>, totpop30 <int>, FIPSSTCO <chr>,
    ## #   COUNTY <chr>, STATEFP <chr>, PLACEFP <chr>, PLACENS <chr>,
    ## #   GEOID <chr>, NAME <chr>, NAMELSAD <chr>, LSAD <chr>, CLASSFP <chr>,
    ## #   PCICBSA <chr>, PCINECTA <chr>, MTFCC <chr>, FUNCSTAT <chr>,
    ## #   ALAND <dbl>, AWATER <dbl>, INTPTLAT <chr>, INTPTLON <chr>,
    ## #   FIPSSTCO.1 <chr>, COUNTY.1 <chr>
…
``` r
deficit
```

    ## Simple feature collection with 174 features and 4 fields
    ## geometry type:  GEOMETRY
    ## dimension:      XY
    ## bbox:           xmin: -123.5337 ymin: 36.89416 xmax: -121.2082 ymax: 38.86425
    ## epsg (SRID):    4326
    ## proj4string:    +proj=longlat +datum=WGS84 +no_defs
    ## # A tibble: 174 x 5
    ##    name   housing_deficit existing_units growth                    geometry
    ##    <chr>            <dbl>          <int>  <dbl>              <GEOMETRY [°]>
    ##  1 San F…          189786         408409  46.5  MULTIPOLYGON (((-123.0036 …
    ##  2 Santa…           57122          47415 120.   POLYGON ((-121.9503 37.338…
    ##  3 Stanf…           49999           6038 828.   POLYGON ((-122.1566 37.419…
    ##  4 Berke…           41233          50536  81.6  POLYGON ((-122.2425 37.857…
    ##  5 Pleas…           25107          24606 102.   POLYGON ((-121.8269 37.673…
    ##  6 Palo …           24971          28615  87.3  POLYGON ((-122.1873 37.416…
    ##  7 San J…           24352         350810   6.94 POLYGON ((-121.7335 36.992…
    ##  8 Redwo…           22924          33423  68.6  POLYGON ((-122.2206 37.458…
    ##  9 San R…           20830          17596 118.   POLYGON ((-121.9364 37.724…
    ## 10 Oakla…           19194         176872  10.9  POLYGON ((-122.1158 37.748…
    ## # … with 164 more rows
…
# Finally, join together, rename to "TRACT", and join with county data
flow_data <-
  inflows %>% 
  left_join(outflows, by = c("DFIPS" = "OFIPS")) %>% 
  rename(tract = DFIPS) %>% 
  left_join(bay_area_tract_data, by = c("tract" = "GEOID")) 

flow_data
```

    ## # A tibble: 1,923 x 9
    ##    tract total_flow_to_t… avg_km_to_tract total_flow_from… avg_km_from_tra…
    ##    <chr>            <dbl>           <dbl>            <dbl>            <dbl>
    ##  1 0600…             1322            17.2             1364            14.5 
    ##  2 0600…             2169            14.1             1169             9.56
    ##  3 0600…             3427            12.2             2646            10.4 
    ##  4 0600…             1313            10.1             2335             9.66
    ##  5 0600…              657            11.0             2087            10.8 
    ##  6 0600…              249            13.8              817            12.9 
    ##  7 0600…             1422            15.3             1771            10.5 
    ##  8 0600…             1351            15.4             1409            11.0 
    ##  9 0600…              349            21.3             1270            10.4 
    ## 10 0600…             3137            20.6             2755            11.0 
    ## # … with 1,913 more rows, and 4 more variables: INTPTLAT <dbl>,
    ## #   INTPTLONG <dbl>, county_code <dbl>, County <chr>
…
``` r
flow_matrix <-
  bay_area_commutes %>% 
  left_join(bay_area_tract_data, by = c("OFIPS" = "GEOID")) %>% 
  rename(origin_lat = INTPTLAT, origin_lon = INTPTLONG, origin_county_code = county_code, origin_county = County) %>% 
  left_join(bay_area_tract_data, by = c("DFIPS" = "GEOID")) %>% 
  rename(dest_lat = INTPTLAT, dest_lon = INTPTLONG, dest_county_code = county_code, dest_county = County) %>% 
  group_by(origin_county, dest_county) %>% 
  summarize(flow = sum(FLOW),
            avg_length_km = weighted.mean(LENKM, FLOW)) 

flow_matrix
```

    ## # A tibble: 181 x 4
    ## # Groups:   origin_county [14]
    ##    origin_county dest_county     flow avg_length_km
    ##    <chr>         <chr>          <dbl>         <dbl>
    ##  1 Alameda       Alameda       466743          9.81
    ##  2 Alameda       Contra Costa   39867         23.5 
    ##  3 Alameda       Marin           3716         37.4 
    ##  4 Alameda       Merced           133        134.  
    ##  5 Alameda       Napa             541         72.1 
    ##  6 Alameda       San Benito       110        105.  
    ##  7 Alameda       San Francisco  71718         23.5 
    ##  8 Alameda       San Joaquin     1853         60.6 
    ##  9 Alameda       San Mateo      34254         26.6 
    ## 10 Alameda       Santa Clara    64447         28.2 
    ## # … with 171 more rows
…
inter_county_dest <-
  flow_matrix_detailed %>% 
  filter(dest_county != origin_county) %>% 
  group_by(dest_county) %>% 
  summarize(
    total_flow_into_county = sum(FLOW, na.rm = TRUE),
    avg_commute_to_county_km = weighted.mean(LENKM, FLOW, na.rm = TRUE)
  )

flow_matrix_detailed
```

    ## # A tibble: 128,793 x 20
    ##    OFIPS DFIPS OSTFIPS OCTFIPS OTRFIPS DSTFIPS DCTFIPS DTRFIPS  FLOW   MOE
    ##    <chr> <chr>   <dbl>   <dbl>   <dbl>   <dbl>   <dbl>   <dbl> <dbl> <dbl>
    ##  1 0605… 0605…       6      55  201700       6      55  201700  2020   427
    ##  2 0607… 0607…       6      75   61500       6      75   61500  1775   318
    ##  3 0608… 0608…       6      81  613700       6      81  613700  1330   327
    ##  4 0608… 0608…       6      85  513000       6      85  513000  1265   273
    ##  5 0604… 0604…       6      47     402       6      47     402  1225   291
    ##  6 0607… 0607…       6      75   61500       6      75   11700  1065   270
    ##  7 0609… 0609…       6      99    3202       6      99    3202  1065   270
    ##  8 0609… 0609…       6      95  253500       6      95  253500  1025   238
    ##  9 0609… 0609…       6      99    3500       6      99    3500   995   229
    ## 10 0608… 0608…       6      87  120900       6      87  120900   980   274
    ## # … with 128,783 more rows, and 10 more variables: LENKM <dbl>,
    ## #   ESTDIVMOE <dbl>, origin_lat <dbl>, origin_lon <dbl>,
    ## #   origin_county_code <dbl>, origin_county <chr>, dest_lat <dbl>,
    ## #   dest_lon <dbl>, dest_county_code <dbl>, dest_county <chr>
…
``` r
csa_cities_cleaned_idx <-
  csa_cities_cleaned %>% 
  mutate(index = row_number())

csa_cities_cleaned_idx
```

    ## Simple feature collection with 374 features and 21 fields
    ## geometry type:  GEOMETRY
    ## dimension:      XY
    ## bbox:           xmin: -123.5331 ymin: 36.77672 xmax: -120.2436 ymax: 38.81954
    ## epsg (SRID):    4326
    ## proj4string:    +proj=longlat +datum=WGS84 +no_defs
    ## # A tibble: 374 x 22
    ##    FIPSSTCO COUNTY STATEFP PLACEFP PLACENS GEOID NAME  NAMELSAD LSAD 
    ##  * <chr>    <chr>  <chr>   <chr>   <chr>   <chr> <chr> <chr>    <chr>
    ##  1 06097    Sonoma 06      14190   024094… 0614… Clov… Cloverd… 25   
    ##  2 06097    Sonoma 06      16560   024102… 0616… Cota… Cotati … 25   
    ##  3 06095    Solano 06      05290   024098… 0605… Beni… Benicia… 25   
    ##  4 06095    Solano 06      19402   024103… 0619… Dixon Dixon c… 25   
    ##  5 06095    Solano 06      60984   024109… 0660… Rio … Rio Vis… 25   
    ##  6 06095    Solano 06      75630   024119… 0675… Suis… Suisun … 25   
    ##  7 06097    Sonoma 06      62546   024109… 0662… Rohn… Rohnert… 25   
    ##  8 06097    Sonoma 06      70770   024118… 0670… Seba… Sebasto… 25   
    ##  9 06097    Sonoma 06      72646   024119… 0672… Sono… Sonoma … 25   
    ## 10 06085    Santa… 06      44112   024129… 0644… Los … Los Gat… 43   
    ## # … with 364 more rows, and 13 more variables: CLASSFP <chr>,
    ## #   PCICBSA <chr>, PCINECTA <chr>, MTFCC <chr>, FUNCSTAT <chr>,
    ## #   ALAND <dbl>, AWATER <dbl>, INTPTLAT <chr>, INTPTLON <chr>,
    ## #   FIPSSTCO.1 <chr>, COUNTY.1 <chr>, geometry <GEOMETRY [°]>, index <int>

``` r
flow_data_idx <-
  flow_data %>% 
  mutate(index = st_nearest_feature(flow_data %>% st_as_sf(coords = c("INTPTLONG", "INTPTLAT"), crs = 4326), csa_cities_cleaned %>% st_as_sf))
```

    ## although coordinates are longitude/latitude, st_nearest_feature assumes that they are planar

``` r
flow_data_idx
```

    ## # A tibble: 1,923 x 10
    ##    tract total_flow_to_t… avg_km_to_tract total_flow_from… avg_km_from_tra…
    ##    <chr>            <dbl>           <dbl>            <dbl>            <dbl>
    ##  1 0600…             1322            17.2             1364            14.5 
    ##  2 0600…             2169            14.1             1169             9.56
    ##  3 0600…             3427            12.2             2646            10.4 
    ##  4 0600…             1313            10.1             2335             9.66
    ##  5 0600…              657            11.0             2087            10.8 
    ##  6 0600…              249            13.8              817            12.9 
    ##  7 0600…             1422            15.3             1771            10.5 
    ##  8 0600…             1351            15.4             1409            11.0 
    ##  9 0600…              349            21.3             1270            10.4 
    ## 10 0600…             3137            20.6             2755            11.0 
    ## # … with 1,913 more rows, and 5 more variables: INTPTLAT <dbl>,
    ## #   INTPTLONG <dbl>, county_code <dbl>, County <chr>, index <int>
``` r
flow_by_csa_city <-
  csa_cities_cleaned_idx %>% 
  left_join(flow_data_idx, by = "index")

flow_by_csa_city
```

    ## Simple feature collection with 2036 features and 30 fields
    ## geometry type:  GEOMETRY
    ## dimension:      XY
    ## bbox:           xmin: -123.5331 ymin: 36.77672 xmax: -120.2436 ymax: 38.81954
    ## epsg (SRID):    4326
    ## proj4string:    +proj=longlat +datum=WGS84 +no_defs
    ## # A tibble: 2,036 x 31
    ##    FIPSSTCO COUNTY STATEFP PLACEFP PLACENS GEOID NAME  NAMELSAD LSAD 
    ##    <chr>    <chr>  <chr>   <chr>   <chr>   <chr> <chr> <chr>    <chr>
    ##  1 06097    Sonoma 06      14190   024094… 0614… Clov… Cloverd… 25   
    ##  2 06097    Sonoma 06      14190   024094… 0614… Clov… Cloverd… 25   
    ##  3 06097    Sonoma 06      16560   024102… 0616… Cota… Cotati … 25   
    ##  4 06097    Sonoma 06      16560   024102… 0616… Cota… Cotati … 25   
    ##  5 06097    Sonoma 06      16560   024102… 0616… Cota… Cotati … 25   
    ##  6 06097    Sonoma 06      16560   024102… 0616… Cota… Cotati … 25   
    ##  7 06095    Solano 06      05290   024098… 0605… Beni… Benicia… 25   
    ##  8 06095    Solano 06      05290   024098… 0605… Beni… Benicia… 25   
    ##  9 06095    Solano 06      05290   024098… 0605… Beni… Benicia… 25   
    ## 10 06095    Solano 06      05290   024098… 0605… Beni… Benicia… 25   
    ## # … with 2,026 more rows, and 22 more variables: CLASSFP <chr>,
    ## #   PCICBSA <chr>, PCINECTA <chr>, MTFCC <chr>, FUNCSTAT <chr>,
    ## #   ALAND <dbl>, AWATER <dbl>, INTPTLAT.x <chr>, INTPTLON <chr>,
    ## #   FIPSSTCO.1 <chr>, COUNTY.1 <chr>, geometry <GEOMETRY [°]>,
    ## #   index <int>, tract <chr>, total_flow_to_tract <dbl>,
    ## #   avg_km_to_tract <dbl>, total_flow_from_tract <dbl>,
    ## #   avg_km_from_tract <dbl>, INTPTLAT.y <dbl>, INTPTLONG <dbl>,
    ## #   county_code <dbl>, County <chr>
…
flow_by_csa_city_detailed
```

    ## Simple feature collection with 128906 features and 24 fields
    ## geometry type:  GEOMETRY
    ## dimension:      XY
    ## bbox:           xmin: -123.5331 ymin: 36.77672 xmax: -120.2436 ymax: 38.81954
    ## epsg (SRID):    4326
    ## proj4string:    +proj=longlat +datum=WGS84 +no_defs
    ## # A tibble: 128,906 x 25
    ##    origin_city index                  geometry OFIPS DFIPS OSTFIPS OCTFIPS
    ##    <chr>       <int>             <POLYGON [°]> <chr> <chr>   <dbl>   <dbl>
    ##  1 Cloverdale      1 ((-123.0351 38.78701, -1… 0609… 0609…       6      97
    ##  2 Cloverdale      1 ((-123.0351 38.78701, -1… 0609… 0609…       6      97
    ##  3 Cloverdale      1 ((-123.0351 38.78701, -1… 0609… 0609…       6      97
    ##  4 Cloverdale      1 ((-123.0351 38.78701, -1… 0609… 0609…       6      97
    ##  5 Cloverdale      1 ((-123.0351 38.78701, -1… 0609… 0609…       6      97
    ##  6 Cloverdale      1 ((-123.0351 38.78701, -1… 0609… 0609…       6      97
    ##  7 Cloverdale      1 ((-123.0351 38.78701, -1… 0609… 0609…       6      97
    ##  8 Cloverdale      1 ((-123.0351 38.78701, -1… 0609… 0609…       6      97
    ##  9 Cloverdale      1 ((-123.0351 38.78701, -1… 0609… 0609…       6      97
    ## 10 Cloverdale      1 ((-123.0351 38.78701, -1… 0609… 0609…       6      97
    ## # … with 128,896 more rows, and 18 more variables: OTRFIPS <dbl>,
    ## #   DSTFIPS <dbl>, DCTFIPS <dbl>, DTRFIPS <dbl>, FLOW <dbl>, MOE <dbl>,
    ## #   LENKM <dbl>, ESTDIVMOE <dbl>, origin_lat <dbl>, origin_lon <dbl>,
    ## #   origin_county_code <dbl>, origin_county <chr>, dest_lat <dbl>,
    ## #   dest_lon <dbl>, dest_county_code <dbl>, dest_county <chr>,
    ## #   dest_index <int>, dest_city <chr>
…
For calculating the imbalance by city (and emissions), we can drop
commutes that start and end in the same city (won’t contribute to
imbalance )

``` r
flow_by_csa_city_detailed
```

    ## Simple feature collection with 128906 features and 24 fields
    ## geometry type:  GEOMETRY
    ## dimension:      XY
    ## bbox:           xmin: -123.5331 ymin: 36.77672 xmax: -120.2436 ymax: 38.81954
    ## epsg (SRID):    4326
    ## proj4string:    +proj=longlat +datum=WGS84 +no_defs
    ## # A tibble: 128,906 x 25
    ##    origin_city index                  geometry OFIPS DFIPS OSTFIPS OCTFIPS
    ##    <chr>       <int>             <POLYGON [°]> <chr> <chr>   <dbl>   <dbl>
    ##  1 Cloverdale      1 ((-123.0351 38.78701, -1… 0609… 0609…       6      97
    ##  2 Cloverdale      1 ((-123.0351 38.78701, -1… 0609… 0609…       6      97
    ##  3 Cloverdale      1 ((-123.0351 38.78701, -1… 0609… 0609…       6      97
    ##  4 Cloverdale      1 ((-123.0351 38.78701, -1… 0609… 0609…       6      97
    ##  5 Cloverdale      1 ((-123.0351 38.78701, -1… 0609… 0609…       6      97
    ##  6 Cloverdale      1 ((-123.0351 38.78701, -1… 0609… 0609…       6      97
    ##  7 Cloverdale      1 ((-123.0351 38.78701, -1… 0609… 0609…       6      97
    ##  8 Cloverdale      1 ((-123.0351 38.78701, -1… 0609… 0609…       6      97
    ##  9 Cloverdale      1 ((-123.0351 38.78701, -1… 0609… 0609…       6      97
    ## 10 Cloverdale      1 ((-123.0351 38.78701, -1… 0609… 0609…       6      97
    ## # … with 128,896 more rows, and 18 more variables: OTRFIPS <dbl>,
    ## #   DSTFIPS <dbl>, DCTFIPS <dbl>, DTRFIPS <dbl>, FLOW <dbl>, MOE <dbl>,
    ## #   LENKM <dbl>, ESTDIVMOE <dbl>, origin_lat <dbl>, origin_lon <dbl>,
    ## #   origin_county_code <dbl>, origin_county <chr>, dest_lat <dbl>,
    ## #   dest_lon <dbl>, dest_county_code <dbl>, dest_county <chr>,
    ## #   dest_index <int>, dest_city <chr>
…
imbalance_and_emissions_city <-
  commute_flow_into_city %>% 
  left_join(commute_flow_leaving_city, by = c("dest_city" = "origin_city")) %>% 
  rename(city = dest_city) %>% 
  mutate(
    imbalance = flow_into_city - flow_leaving_city, 
    daily_commute_emissions_lb = commute_to_city_km * emissions_lb_per_km * imbalance * 2, 
    annual_commute_emissions_lb = daily_commute_emissions_lb * 5 * 48  # assume 4 weeks off per year, and 5 days per workweek
  ) 

commute_flow_into_city
```

    ## # A tibble: 261 x 4
    ##    dest_city       flow_into_city commute_to_city_km emissions_lb_per_km
    ##    <chr>                    <dbl>              <dbl>               <dbl>
    ##  1 Alameda                  17207              22.3                0.309
    ##  2 Alamo                     1419              17.7                0.340
    ##  3 Albany                    2658              15.6                0.321
    ##  4 Allendale                  268              32.6                0.377
    ##  5 Alum Rock                 1385              11.0                0.368
    ##  6 American Canyon           9078              20.9                0.371
    ##  7 Amesti                     230               4.75               0.4  
    ##  8 Angwin                    2338              30.5                0.362
    ##  9 Antioch                  12305              17.9                0.340
    ## 10 Aptos                     4828              12.5                0.398
    ## # … with 251 more rows

``` r
commute_flow_leaving_city
```

    ## # A tibble: 261 x 3
    ##    origin_city     flow_leaving_city commute_leaving_city_km
    ##    <chr>                       <dbl>                   <dbl>
    ##  1 Alameda                     25577                    15.9
    ##  2 Alamo                        4455                    22.0
    ##  3 Albany                       6562                    14.5
    ##  4 Allendale                    1501                    27.1
    ##  5 Alum Rock                    5987                    16.8
    ##  6 American Canyon              6946                    27.4
    ##  7 Amesti                        767                    12.0
    ##  8 Angwin                       1900                    32.6
    ##  9 Antioch                     32314                    31.9
    ## 10 Aptos                        4582                    18.0
    ## # … with 251 more rows
…
